Verilog/VerilogDM-152-246.vcd
$date
	Sun Nov 05 04:20:58 2017
$end
$version
	Icarus Verilog
$end
$timescale
	1s
$end
$scope module Verilog_152_246 $end
$var wire 4 ! out2 [3:0] $end
$var wire 4 " out1 [3:0] $end
$var wire 7 # decoder2 [0:6] $end
$var wire 7 $ decoder1 [0:6] $end
$var wire 4 % counter2 [3:0] $end
$var wire 4 & counter1 [3:0] $end
$var reg 1 ' clk $end
$var reg 1 ( reset $end
$scope module v1 $end
$var wire 1 ' clk $end
$var wire 1 ( reset $end
$var wire 18 ) w [17:0] $end
$var wire 4 * out2 [3:0] $end
$var wire 4 + out1 [3:0] $end
$var wire 7 , decoder2 [0:6] $end
$var wire 7 - decoder1 [0:6] $end
$var wire 4 . counter2 [3:0] $end
$var wire 4 / counter1 [3:0] $end
$var wire 1 0 clk1 $end
$scope module d1 $end
$var wire 4 1 out [3:0] $end
$var wire 7 2 i [0:6] $end
$upscope $end
$scope module d2 $end
$var wire 4 3 out [3:0] $end
$var wire 7 4 i [0:6] $end
$upscope $end
$scope module jk0 $end
$var wire 1 ' clk $end
$var wire 1 5 j $end
$var wire 1 6 k $end
$var wire 1 ( reset $end
$var reg 1 7 q $end
$var reg 1 8 q_bar $end
$upscope $end
$scope module jk1 $end
$var wire 1 ' clk $end
$var wire 1 9 j $end
$var wire 1 : k $end
$var wire 1 ( reset $end
$var reg 1 ; q $end
$var reg 1 < q_bar $end
$upscope $end
$scope module jk2 $end
$var wire 1 ' clk $end
$var wire 1 = j $end
$var wire 1 > k $end
$var wire 1 ( reset $end
$var reg 1 ? q $end
$var reg 1 @ q_bar $end
$upscope $end
$scope module jk3 $end
$var wire 1 ' clk $end
$var wire 1 A j $end
$var wire 1 B k $end
$var wire 1 ( reset $end
$var reg 1 C q $end
$var reg 1 D q_bar $end
$upscope $end
$scope module jk4 $end
$var wire 1 0 clk $end
$var wire 1 E j $end
$var wire 1 F k $end
$var wire 1 ( reset $end
$var reg 1 G q $end
$var reg 1 H q_bar $end
$upscope $end
$scope module jk5 $end
$var wire 1 0 clk $end
$var wire 1 I j $end
$var wire 1 J k $end
$var wire 1 ( reset $end
$var reg 1 K q $end
$var reg 1 L q_bar $end
$upscope $end
$scope module jk6 $end
$var wire 1 0 clk $end
$var wire 1 M j $end
$var wire 1 N k $end
$var wire 1 ( reset $end
$var reg 1 O q $end
$var reg 1 P q_bar $end
$upscope $end
$scope module jk7 $end
$var wire 1 0 clk $end
$var wire 1 Q j $end
$var wire 1 R k $end
$var wire 1 ( reset $end
$var reg 1 S q $end
$var reg 1 T q_bar $end
$upscope $end
$scope module s1 $end
$var wire 4 U i [3:0] $end
$var wire 9 V w [9:1] $end
$var wire 7 W out [0:6] $end
$upscope $end
$scope module s2 $end
$var wire 4 X i [3:0] $end
$var wire 9 Y w [9:1] $end
$var wire 7 Z out [0:6] $end
$upscope $end
$upscope $end
$upscope $end
$enddefinitions $end
#0
$dumpvars
b1111110 Z
b1010 Y
b0 X
b1111110 W
b1010 V
b0 U
1T
0S
0R
0Q
1P
0O
0N
0M
1L
0K
0J
0I
1H
0G
1F
1E
1D
0C
0B
0A
1@
0?
0>
0=
1<
0;
0:
09
18
07
16
15
b1111110 4
b0 3
b1111110 2
b0 1
10
b0 /
b0 .
b1111110 -
b1111110 ,
b0 +
b0 *
b111100000000001111 )
1(
1'
b0 &
b0 %
b1111110 $
b1111110 #
b0 "
b0 !
$end
#5
0(
#10
0'
#20
b1 "
b1 +
b1 1
b110000 $
b110000 -
b110000 2
b110000 W
b0 V
1:
19
b111100000000011110 )
08
b1 &
b1 /
b1 U
17
1'
#30
0'
#40
b10 "
b10 +
b10 1
0:
09
b110010 V
b1101101 $
b1101101 -
b1101101 2
b1101101 W
18
07
b111100000000001101 )
0<
b10 &
b10 /
b10 U
1;
1'
#50
0'
#60
b11 "
b11 +
b11 1
1>
1=
1:
19
b100100 V
b1111001 $
b1111001 -
b1111001 2
b1111001 W
b111100000000111100 )
08
b11 &
b11 /
b11 U
17
1'
#70
0'
#80
b100 "
b100 +
b100 1
0B
0A
0:
09
0>
0=
b110001000 V
b110011 $
b110011 -
b110011 2
b110011 W
18
07
1<
0;
b111100000000001011 )
0@
b100 &
b100 /
b100 U
1?
1'
#90
0'
#100
b101 "
b101 +
b101 1
b1011011 $
b1011011 -
b1011011 2
b1011011 W
1:
19
b11000001 V
b111100000000011010 )
08
b101 &
b101 /
b101 U
17
1'
#110
0'
#120
b110 "
b110 +
b110 1
b1011111 $
b1011111 -
b1011111 2
b1011111 W
0:
09
b100010000 V
18
07
b111100000000001001 )
0<
b110 &
b110 /
b110 U
1;
1'
#130
0'
#140
b111 "
b111 +
b111 1
1B
1A
b1110000 $
b1110000 -
b1110000 2
b1110000 W
1>
1=
1:
19
b101 V
b111100000101111000 )
08
b111 &
b111 /
b111 U
17
1'
#150
0'
#160
b1000 "
b1000 +
b1000 1
0B
0A
0:
09
0>
0=
b1010 V
b1111111 $
b1111111 -
b1111111 2
b1111111 W
00
18
07
1<
0;
1@
0?
b111100000000000111 )
0D
b1000 &
b1000 /
b1000 U
1C
1'
#170
0'
#180
b1001 "
b1001 +
b1001 1
b1111011 $
b1111011 -
b1111011 2
b1111011 W
1B
1A
b0 V
b111100000110000110 )
08
b1001 &
b1001 /
b1001 U
17
1'
#190
0'
#200
b1 !
b1 *
b1 3
b110000 #
b110000 ,
b110000 4
b110000 Z
b0 Y
1J
1I
0H
b1 %
b1 .
b1 X
1G
b0 "
b0 +
b0 1
0B
0A
b1010 V
b1111110 $
b1111110 -
b1111110 2
b1111110 W
10
18
07
b111000001000001111 )
1D
b0 &
b0 /
b0 U
0C
1'
#210
0'
#220
b1 "
b1 +
b1 1
b110000 $
b110000 -
b110000 2
b110000 W
b0 V
1:
19
b111000001000011110 )
08
b1 &
b1 /
b1 U
17
1'
#230
0'
#240
b10 "
b10 +
b10 1
0:
09
b110010 V
b1101101 $
b1101101 -
b1101101 2
b1101101 W
18
07
b111000001000001101 )
0<
b10 &
b10 /
b10 U
1;
1'
#250
0'
#260
b11 "
b11 +
b11 1
1>
1=
1:
19
b100100 V
b1111001 $
b1111001 -
b1111001 2
b1111001 W
b111000001000111100 )
08
b11 &
b11 /
b11 U
17
1'
#270
0'
#280
b100 "
b100 +
b100 1
0B
0A
0:
09
0>
0=
b110001000 V
b110011 $
b110011 -
b110011 2
b110011 W
18
07
1<
0;
b111000001000001011 )
0@
b100 &
b100 /
b100 U
1?
1'
#290
0'
#300
b101 "
b101 +
b101 1
b1011011 $
b1011011 -
b1011011 2
b1011011 W
1:
19
b11000001 V
b111000001000011010 )
08
b101 &
b101 /
b101 U
17
1'
#310
0'
#320
b110 "
b110 +
b110 1
b1011111 $
b1011111 -
b1011111 2
b1011111 W
0:
09
b100010000 V
18
07
b111000001000001001 )
0<
b110 &
b110 /
b110 U
1;
1'
#330
0'
#340
b111 "
b111 +
b111 1
1B
1A
b1110000 $
b1110000 -
b1110000 2
b1110000 W
1>
1=
1:
19
b101 V
b111000001101111000 )
08
b111 &
b111 /
b111 U
17
1'
#350
0'
#360
b1000 "
b1000 +
b1000 1
0B
0A
0:
09
0>
0=
b1010 V
b1111111 $
b1111111 -
b1111111 2
b1111111 W
00
18
07
1<
0;
1@
0?
b111000001000000111 )
0D
b1000 &
b1000 /
b1000 U
1C
1'
#370
0'
#380
b1001 "
b1001 +
b1001 1
b1111011 $
b1111011 -
b1111011 2
b1111011 W
1B
1A
b0 V
b111000001110000110 )
08
b1001 &
b1001 /
b1001 U
17
1'
#390
0'
#400
b10 !
b10 *
b10 3
0J
0I
b110010 Y
b1101101 #
b1101101 ,
b1101101 4
b1101101 Z
1H
0G
0L
b10 %
b10 .
b10 X
1K
b0 "
b0 +
b0 1
0B
0A
b1010 V
b1111110 $
b1111110 -
b1111110 2
b1111110 W
10
18
07
b110100000000001111 )
1D
b0 &
b0 /
b0 U
0C
1'
#410
0'
#420
b1 "
b1 +
b1 1
b110000 $
b110000 -
b110000 2
b110000 W
b0 V
1:
19
b110100000000011110 )
08
b1 &
b1 /
b1 U
17
1'
#430
0'
#440
b10 "
b10 +
b10 1
0:
09
b110010 V
b1101101 $
b1101101 -
b1101101 2
b1101101 W
18
07
b110100000000001101 )
0<
b10 &
b10 /
b10 U
1;
1'
#450
0'
#460
b11 "
b11 +
b11 1
1>
1=
1:
19
b100100 V
b1111001 $
b1111001 -
b1111001 2
b1111001 W
b110100000000111100 )
08
b11 &
b11 /
b11 U
17
1'
#470
0'
#480
b100 "
b100 +
b100 1
0B
0A
0:
09
0>
0=
b110001000 V
b110011 $
b110011 -
b110011 2
b110011 W
18
07
1<
0;
b110100000000001011 )
0@
b100 &
b100 /
b100 U
1?
1'
#490
0'
#500
b101 "
b101 +
b101 1
b1011011 $
b1011011 -
b1011011 2
b1011011 W
1:
19
b11000001 V
b110100000000011010 )
08
b101 &
b101 /
b101 U
17
1'
#510
0'
#520
b110 "
b110 +
b110 1
b1011111 $
b1011111 -
b1011111 2
b1011111 W
0:
09
b100010000 V
18
07
b110100000000001001 )
0<
b110 &
b110 /
b110 U
1;
1'
#530
0'
#540
b111 "
b111 +
b111 1
1B
1A
b1110000 $
b1110000 -
b1110000 2
b1110000 W
1>
1=
1:
19
b101 V
b110100000101111000 )
08
b111 &
b111 /
b111 U
17
1'
#550
0'
#560
b1000 "
b1000 +
b1000 1
0B
0A
0:
09
0>
0=
b1010 V
b1111111 $
b1111111 -
b1111111 2
b1111111 W
00
18
07
1<
0;
1@
0?
b110100000000000111 )
0D
b1000 &
b1000 /
b1000 U
1C
1'
#570
0'
#580
b1001 "
b1001 +
b1001 1
b1111011 $
b1111011 -
b1111011 2
b1111011 W
1B
1A
b0 V
b110100000110000110 )
08
b1001 &
b1001 /
b1001 U
17
1'
#590
0'
#600
b11 !
b11 *
b11 3
1N
1M
1J
1I
b100100 Y
b1111001 #
b1111001 ,
b1111001 4
b1111001 Z
0H
b11 %
b11 .
b11 X
1G
b0 "
b0 +
b0 1
0B
0A
b1010 V
b1111110 $
b1111110 -
b1111110 2
b1111110 W
10
18
07
b110000011000001111 )
1D
b0 &
b0 /
b0 U
0C
1'
#610
0'
#620
b1 "
b1 +
b1 1
b110000 $
b110000 -
b110000 2
b110000 W
b0 V
1:
19
b110000011000011110 )
08
b1 &
b1 /
b1 U
17
1'
#630
0'
#640
b10 "
b10 +
b10 1
0:
09
b110010 V
b1101101 $
b1101101 -
b1101101 2
b1101101 W
18
07
b110000011000001101 )
0<
b10 &
b10 /
b10 U
1;
1'
#650
0'
#660
b11 "
b11 +
b11 1
1>
1=
1:
19
b100100 V
b1111001 $
b1111001 -
b1111001 2
b1111001 W
b110000011000111100 )
08
b11 &
b11 /
b11 U
17
1'
#670
0'
#680
b100 "
b100 +
b100 1
0B
0A
0:
09
0>
0=
b110001000 V
b110011 $
b110011 -
b110011 2
b110011 W
18
07
1<
0;
b110000011000001011 )
0@
b100 &
b100 /
b100 U
1?
1'
#690
0'
#700
b101 "
b101 +
b101 1
b1011011 $
b1011011 -
b1011011 2
b1011011 W
1:
19
b11000001 V
b110000011000011010 )
08
b101 &
b101 /
b101 U
17
1'
#710
0'
#720
b110 "
b110 +
b110 1
b1011111 $
b1011111 -
b1011111 2
b1011111 W
0:
09
b100010000 V
18
07
b110000011000001001 )
0<
b110 &
b110 /
b110 U
1;
1'
#730
0'
#740
b111 "
b111 +
b111 1
1B
1A
b1110000 $
b1110000 -
b1110000 2
b1110000 W
1>
1=
1:
19
b101 V
b110000011101111000 )
08
b111 &
b111 /
b111 U
17
1'
#750
0'
#760
b1000 "
b1000 +
b1000 1
0B
0A
0:
09
0>
0=
b1010 V
b1111111 $
b1111111 -
b1111111 2
b1111111 W
00
18
07
1<
0;
1@
0?
b110000011000000111 )
0D
b1000 &
b1000 /
b1000 U
1C
1'
#770
0'
#780
b1001 "
b1001 +
b1001 1
b1111011 $
b1111011 -
b1111011 2
b1111011 W
1B
1A
b0 V
b110000011110000110 )
08
b1001 &
b1001 /
b1001 U
17
1'
#790
0'
#800
b100 !
b100 *
b100 3
0R
0Q
0J
0I
0N
0M
b110001000 Y
b110011 #
b110011 ,
b110011 4
b110011 Z
1H
0G
1L
0K
0P
b100 %
b100 .
b100 X
1O
b0 "
b0 +
b0 1
0B
0A
b1010 V
b1111110 $
b1111110 -
b1111110 2
b1111110 W
10
18
07
b101100000000001111 )
1D
b0 &
b0 /
b0 U
0C
1'
#810
0'
#820
b1 "
b1 +
b1 1
b110000 $
b110000 -
b110000 2
b110000 W
b0 V
1:
19
b101100000000011110 )
08
b1 &
b1 /
b1 U
17
1'
#830
0'
#840
b10 "
b10 +
b10 1
0:
09
b110010 V
b1101101 $
b1101101 -
b1101101 2
b1101101 W
18
07
b101100000000001101 )
0<
b10 &
b10 /
b10 U
1;
1'
#850
0'
#860
b11 "
b11 +
b11 1
1>
1=
1:
19
b100100 V
b1111001 $
b1111001 -
b1111001 2
b1111001 W
b101100000000111100 )
08
b11 &
b11 /
b11 U
17
1'
#870
0'
#880
b100 "
b100 +
b100 1
0B
0A
0:
09
0>
0=
b110001000 V
b110011 $
b110011 -
b110011 2
b110011 W
18
07
1<
0;
b101100000000001011 )
0@
b100 &
b100 /
b100 U
1?
1'
#890
0'
#900
b101 "
b101 +
b101 1
b1011011 $
b1011011 -
b1011011 2
b1011011 W
1:
19
b11000001 V
b101100000000011010 )
08
b101 &
b101 /
b101 U
17
1'
#910
0'
#920
b110 "
b110 +
b110 1
b1011111 $
b1011111 -
b1011111 2
b1011111 W
0:
09
b100010000 V
18
07
b101100000000001001 )
0<
b110 &
b110 /
b110 U
1;
1'
#930
0'
#940
b111 "
b111 +
b111 1
1B
1A
b1110000 $
b1110000 -
b1110000 2
b1110000 W
1>
1=
1:
19
b101 V
b101100000101111000 )
08
b111 &
b111 /
b111 U
17
1'
#950
0'
#960
b1000 "
b1000 +
b1000 1
0B
0A
0:
09
0>
0=
b1010 V
b1111111 $
b1111111 -
b1111111 2
b1111111 W
00
18
07
1<
0;
1@
0?
b101100000000000111 )
0D
b1000 &
b1000 /
b1000 U
1C
1'
#970
0'
#980
b1001 "
b1001 +
b1001 1
b1111011 $
b1111011 -
b1111011 2
b1111011 W
1B
1A
b0 V
b101100000110000110 )
08
b1001 &
b1001 /
b1001 U
17
1'
#990
0'
#1000
b101 !
b101 *
b101 3
b1011011 #
b1011011 ,
b1011011 4
b1011011 Z
1J
1I
b11000001 Y
0H
b101 %
b101 .
b101 X
1G
b0 "
b0 +
b0 1
0B
0A
b1010 V
b1111110 $
b1111110 -
b1111110 2
b1111110 W
10
18
07
b101000001000001111 )
1D
b0 &
b0 /
b0 U
0C
1'
#1010
0'
#1020
b1 "
b1 +
b1 1
b110000 $
b110000 -
b110000 2
b110000 W
b0 V
1:
19
b101000001000011110 )
08
b1 &
b1 /
b1 U
17
1'
#1030
0'
#1040
b10 "
b10 +
b10 1
0:
09
b110010 V
b1101101 $
b1101101 -
b1101101 2
b1101101 W
18
07
b101000001000001101 )
0<
b10 &
b10 /
b10 U
1;
1'
#1050
0'
#1060
b11 "
b11 +
b11 1
1>
1=
1:
19
b100100 V
b1111001 $
b1111001 -
b1111001 2
b1111001 W
b101000001000111100 )
08
b11 &
b11 /
b11 U
17
1'
#1070
0'
#1080
b100 "
b100 +
b100 1
0B
0A
0:
09
0>
0=
b110001000 V
b110011 $
b110011 -
b110011 2
b110011 W
18
07
1<
0;
b101000001000001011 )
0@
b100 &
b100 /
b100 U
1?
1'
#1090
0'
#1100
b101 "
b101 +
b101 1
b1011011 $
b1011011 -
b1011011 2
b1011011 W
1:
19
b11000001 V
b101000001000011010 )
08
b101 &
b101 /
b101 U
17
1'
#1110
0'
#1120
b110 "
b110 +
b110 1
b1011111 $
b1011111 -
b1011111 2
b1011111 W
0:
09
b100010000 V
18
07
b101000001000001001 )
0<
b110 &
b110 /
b110 U
1;
1'
#1130
0'
#1140
b111 "
b111 +
b111 1
1B
1A
b1110000 $
b1110000 -
b1110000 2
b1110000 W
1>
1=
1:
19
b101 V
b101000001101111000 )
08
b111 &
b111 /
b111 U
17
1'
#1150
0'
#1160
b1000 "
b1000 +
b1000 1
0B
0A
0:
09
0>
0=
b1010 V
b1111111 $
b1111111 -
b1111111 2
b1111111 W
00
18
07
1<
0;
1@
0?
b101000001000000111 )
0D
b1000 &
b1000 /
b1000 U
1C
1'
#1170
0'
#1180
b1001 "
b1001 +
b1001 1
b1111011 $
b1111011 -
b1111011 2
b1111011 W
1B
1A
b0 V
b101000001110000110 )
08
b1001 &
b1001 /
b1001 U
17
1'
#1190
0'
#1200
b110 !
b110 *
b110 3
b1011111 #
b1011111 ,
b1011111 4
b1011111 Z
0J
0I
b100010000 Y
1H
0G
0L
b110 %
b110 .
b110 X
1K
b0 "
b0 +
b0 1
0B
0A
b1010 V
b1111110 $
b1111110 -
b1111110 2
b1111110 W
10
18
07
b100100000000001111 )
1D
b0 &
b0 /
b0 U
0C
1'
#1210
0'
#1220
b1 "
b1 +
b1 1
b110000 $
b110000 -
b110000 2
b110000 W
b0 V
1:
19
b100100000000011110 )
08
b1 &
b1 /
b1 U
17
1'
#1230
0'
#1240
b10 "
b10 +
b10 1
0:
09
b110010 V
b1101101 $
b1101101 -
b1101101 2
b1101101 W
18
07
b100100000000001101 )
0<
b10 &
b10 /
b10 U
1;
1'
#1250
0'
#1260
b11 "
b11 +
b11 1
1>
1=
1:
19
b100100 V
b1111001 $
b1111001 -
b1111001 2
b1111001 W
b100100000000111100 )
08
b11 &
b11 /
b11 U
17
1'
#1270
0'
#1280
b100 "
b100 +
b100 1
0B
0A
0:
09
0>
0=
b110001000 V
b110011 $
b110011 -
b110011 2
b110011 W
18
07
1<
0;
b100100000000001011 )
0@
b100 &
b100 /
b100 U
1?
1'
#1290
0'
#1300
b101 "
b101 +
b101 1
b1011011 $
b1011011 -
b1011011 2
b1011011 W
1:
19
b11000001 V
b100100000000011010 )
08
b101 &
b101 /
b101 U
17
1'
#1310
0'
#1320
b110 "
b110 +
b110 1
b1011111 $
b1011111 -
b1011111 2
b1011111 W
0:
09
b100010000 V
18
07
b100100000000001001 )
0<
b110 &
b110 /
b110 U
1;
1'
#1330
0'
#1340
b111 "
b111 +
b111 1
1B
1A
b1110000 $
b1110000 -
b1110000 2
b1110000 W
1>
1=
1:
19
b101 V
b100100000101111000 )
08
b111 &
b111 /
b111 U
17
1'
#1350
0'
#1360
b1000 "
b1000 +
b1000 1
0B
0A
0:
09
0>
0=
b1010 V
b1111111 $
b1111111 -
b1111111 2
b1111111 W
00
18
07
1<
0;
1@
0?
b100100000000000111 )
0D
b1000 &
b1000 /
b1000 U
1C
1'
#1370
0'
#1380
b1001 "
b1001 +
b1001 1
b1111011 $
b1111011 -
b1111011 2
b1111011 W
1B
1A
b0 V
b100100000110000110 )
08
b1001 &
b1001 /
b1001 U
17
1'
#1390
0'
#1400
b111 !
b111 *
b111 3
1R
1Q
b1110000 #
b1110000 ,
b1110000 4
b1110000 Z
1N
1M
1J
1I
b101 Y
0H
b111 %
b111 .
b111 X
1G
b0 "
b0 +
b0 1
0B
0A
b1010 V
b1111110 $
b1111110 -
b1111110 2
b1111110 W
10
18
07
b100010111000001111 )
1D
b0 &
b0 /
b0 U
0C
1'
#1410
0'
#1420
b1 "
b1 +
b1 1
b110000 $
b110000 -
b110000 2
b110000 W
b0 V
1:
19
b100010111000011110 )
08
b1 &
b1 /
b1 U
17
1'
#1430
0'
#1440
b10 "
b10 +
b10 1
0:
09
b110010 V
b1101101 $
b1101101 -
b1101101 2
b1101101 W
18
07
b100010111000001101 )
0<
b10 &
b10 /
b10 U
1;
1'
#1450
0'
#1460
b11 "
b11 +
b11 1
1>
1=
1:
19
b100100 V
b1111001 $
b1111001 -
b1111001 2
b1111001 W
b100010111000111100 )
08
b11 &
b11 /
b11 U
17
1'
#1470
0'
#1480
b100 "
b100 +
b100 1
0B
0A
0:
09
0>
0=
b110001000 V
b110011 $
b110011 -
b110011 2
b110011 W
18
07
1<
0;
b100010111000001011 )
0@
b100 &
b100 /
b100 U
1?
1'
#1490
0'
#1500
b101 "
b101 +
b101 1
b1011011 $
b1011011 -
b1011011 2
b1011011 W
1:
19
b11000001 V
b100010111000011010 )
08
b101 &
b101 /
b101 U
17
1'
#1510
0'
#1520
b110 "
b110 +
b110 1
b1011111 $
b1011111 -
b1011111 2
b1011111 W
0:
09
b100010000 V
18
07
b100010111000001001 )
0<
b110 &
b110 /
b110 U
1;
1'
#1530
0'
#1540
b111 "
b111 +
b111 1
1B
1A
b1110000 $
b1110000 -
b1110000 2
b1110000 W
1>
1=
1:
19
b101 V
b100010111101111000 )
08
b111 &
b111 /
b111 U
17
1'
#1550
0'
#1560
b1000 "
b1000 +
b1000 1
0B
0A
0:
09
0>
0=
b1010 V
b1111111 $
b1111111 -
b1111111 2
b1111111 W
00
18
07
1<
0;
1@
0?
b100010111000000111 )
0D
b1000 &
b1000 /
b1000 U
1C
1'
#1570
0'
#1580
b1001 "
b1001 +
b1001 1
b1111011 $
b1111011 -
b1111011 2
b1111011 W
1B
1A
b0 V
b100010111110000110 )
08
b1001 &
b1001 /
b1001 U
17
1'
#1590
0'
#1600
b1000 !
b1000 *
b1000 3
0R
0Q
0J
0I
0N
0M
b1010 Y
b1111111 #
b1111111 ,
b1111111 4
b1111111 Z
1H
0G
1L
0K
1P
0O
0T
b1000 %
b1000 .
b1000 X
1S
b0 "
b0 +
b0 1
0B
0A
b1010 V
b1111110 $
b1111110 -
b1111110 2
b1111110 W
10
18
07
b11100000000001111 )
1D
b0 &
b0 /
b0 U
0C
1'
#1610
0'
#1620
b1 "
b1 +
b1 1
b110000 $
b110000 -
b110000 2
b110000 W
b0 V
1:
19
b11100000000011110 )
08
b1 &
b1 /
b1 U
17
1'
#1630
0'
#1640
b10 "
b10 +
b10 1
0:
09
b110010 V
b1101101 $
b1101101 -
b1101101 2
b1101101 W
18
07
b11100000000001101 )
0<
b10 &
b10 /
b10 U
1;
1'
#1650
0'
#1660
b11 "
b11 +
b11 1
1>
1=
1:
19
b100100 V
b1111001 $
b1111001 -
b1111001 2
b1111001 W
b11100000000111100 )
08
b11 &
b11 /
b11 U
17
1'
#1670
0'
#1680
b100 "
b100 +
b100 1
0B
0A
0:
09
0>
0=
b110001000 V
b110011 $
b110011 -
b110011 2
b110011 W
18
07
1<
0;
b11100000000001011 )
0@
b100 &
b100 /
b100 U
1?
1'
#1690
0'
#1700
b101 "
b101 +
b101 1
b1011011 $
b1011011 -
b1011011 2
b1011011 W
1:
19
b11000001 V
b11100000000011010 )
08
b101 &
b101 /
b101 U
17
1'
#1710
0'
#1720
b110 "
b110 +
b110 1
b1011111 $
b1011111 -
b1011111 2
b1011111 W
0:
09
b100010000 V
18
07
b11100000000001001 )
0<
b110 &
b110 /
b110 U
1;
1'
#1730
0'
#1740
b111 "
b111 +
b111 1
1B
1A
b1110000 $
b1110000 -
b1110000 2
b1110000 W
1>
1=
1:
19
b101 V
b11100000101111000 )
08
b111 &
b111 /
b111 U
17
1'
#1750
0'
#1760
b1000 "
b1000 +
b1000 1
0B
0A
0:
09
0>
0=
b1010 V
b1111111 $
b1111111 -
b1111111 2
b1111111 W
00
18
07
1<
0;
1@
0?
b11100000000000111 )
0D
b1000 &
b1000 /
b1000 U
1C
1'
#1770
0'
#1780
b1001 "
b1001 +
b1001 1
b1111011 $
b1111011 -
b1111011 2
b1111011 W
1B
1A
b0 V
b11100000110000110 )
08
b1001 &
b1001 /
b1001 U
17
1'
#1790
0'
#1800
b1001 !
b1001 *
b1001 3
b1111011 #
b1111011 ,
b1111011 4
b1111011 Z
1R
1Q
b0 Y
0H
b1001 %
b1001 .
b1001 X
1G
b0 "
b0 +
b0 1
0B
0A
b1010 V
b1111110 $
b1111110 -
b1111110 2
b1111110 W
10
18
07
b11011000000001111 )
1D
b0 &
b0 /
b0 U
0C
1'
#1810
0'
#1820
b1 "
b1 +
b1 1
b110000 $
b110000 -
b110000 2
b110000 W
b0 V
1:
19
b11011000000011110 )
08
b1 &
b1 /
b1 U
17
1'
#1830
0'
#1840
b10 "
b10 +
b10 1
0:
09
b110010 V
b1101101 $
b1101101 -
b1101101 2
b1101101 W
18
07
b11011000000001101 )
0<
b10 &
b10 /
b10 U
1;
1'
#1850
0'
#1860
b11 "
b11 +
b11 1
1>
1=
1:
19
b100100 V
b1111001 $
b1111001 -
b1111001 2
b1111001 W
b11011000000111100 )
08
b11 &
b11 /
b11 U
17
1'
#1870
0'
#1880
b100 "
b100 +
b100 1
0B
0A
0:
09
0>
0=
b110001000 V
b110011 $
b110011 -
b110011 2
b110011 W
18
07
1<
0;
b11011000000001011 )
0@
b100 &
b100 /
b100 U
1?
1'
#1890
0'
#1900
b101 "
b101 +
b101 1
b1011011 $
b1011011 -
b1011011 2
b1011011 W
1:
19
b11000001 V
b11011000000011010 )
08
b101 &
b101 /
b101 U
17
1'
#1910
0'
#1920
b110 "
b110 +
b110 1
b1011111 $
b1011111 -
b1011111 2
b1011111 W
0:
09
b100010000 V
18
07
b11011000000001001 )
0<
b110 &
b110 /
b110 U
1;
1'
#1930
0'
#1940
b111 "
b111 +
b111 1
1B
1A
b1110000 $
b1110000 -
b1110000 2
b1110000 W
1>
1=
1:
19
b101 V
b11011000101111000 )
08
b111 &
b111 /
b111 U
17
1'
#1950
0'
#1960
b1000 "
b1000 +
b1000 1
0B
0A
0:
09
0>
0=
b1010 V
b1111111 $
b1111111 -
b1111111 2
b1111111 W
00
18
07
1<
0;
1@
0?
b11011000000000111 )
0D
b1000 &
b1000 /
b1000 U
1C
1'
#1970
0'
#1980
b1001 "
b1001 +
b1001 1
b1111011 $
b1111011 -
b1111011 2
b1111011 W
1B
1A
b0 V
b11011000110000110 )
08
b1001 &
b1001 /
b1001 U
17
1'
#1990
0'
#2000
b0 !
b0 *
b0 3
0R
0Q
b1010 Y
b1111110 #
b1111110 ,
b1111110 4
b1111110 Z
1H
0G
1T
b0 %
b0 .
b0 X
0S
b0 "
b0 +
b0 1
0B
0A
b1010 V
b1111110 $
b1111110 -
b1111110 2
b1111110 W
10
18
07
b111100000000001111 )
1D
b0 &
b0 /
b0 U
0C
1'
