Verilog/VerilogBM-152-246.vcd
$date
	Sun Nov 05 04:24:05 2017
$end
$version
	Icarus Verilog
$end
$timescale
	1s
$end
$scope module Verilog_152_246 $end
$var wire 4 ! out2 [3:0] $end
$var wire 4 " out1 [3:0] $end
$var wire 7 # decoder2 [0:6] $end
$var wire 7 $ decoder1 [0:6] $end
$var wire 4 % counter2 [3:0] $end
$var wire 4 & counter1 [3:0] $end
$var reg 1 ' clk $end
$var reg 1 ( reset $end
$scope module v1 $end
$var wire 1 ' clk $end
$var wire 1 ( reset $end
$var wire 8 ) w1 [7:0] $end
$var wire 4 * out2 [3:0] $end
$var wire 4 + out1 [3:0] $end
$var wire 7 , decoder2 [0:6] $end
$var wire 7 - decoder1 [0:6] $end
$var wire 4 . counter2 [3:0] $end
$var wire 4 / counter1 [3:0] $end
$var reg 1 0 clk1 $end
$var reg 10 1 w [13:4] $end
$scope module d1 $end
$var wire 7 2 in [0:6] $end
$var reg 4 3 out [3:0] $end
$upscope $end
$scope module d2 $end
$var wire 7 4 in [0:6] $end
$var reg 4 5 out [3:0] $end
$upscope $end
$scope module jk0 $end
$var wire 1 ' clk $end
$var wire 1 6 j $end
$var wire 1 7 k $end
$var wire 1 ( reset $end
$var reg 1 8 q $end
$var reg 1 9 q_bar $end
$upscope $end
$scope module jk1 $end
$var wire 1 ' clk $end
$var wire 1 : j $end
$var wire 1 ; k $end
$var wire 1 ( reset $end
$var reg 1 < q $end
$var reg 1 = q_bar $end
$upscope $end
$scope module jk2 $end
$var wire 1 ' clk $end
$var wire 1 > j $end
$var wire 1 ? k $end
$var wire 1 ( reset $end
$var reg 1 @ q $end
$var reg 1 A q_bar $end
$upscope $end
$scope module jk3 $end
$var wire 1 ' clk $end
$var wire 1 B j $end
$var wire 1 C k $end
$var wire 1 ( reset $end
$var reg 1 D q $end
$var reg 1 E q_bar $end
$upscope $end
$scope module jk4 $end
$var wire 1 0 clk $end
$var wire 1 F j $end
$var wire 1 G k $end
$var wire 1 ( reset $end
$var reg 1 H q $end
$var reg 1 I q_bar $end
$upscope $end
$scope module jk5 $end
$var wire 1 0 clk $end
$var wire 1 J j $end
$var wire 1 K k $end
$var wire 1 ( reset $end
$var reg 1 L q $end
$var reg 1 M q_bar $end
$upscope $end
$scope module jk6 $end
$var wire 1 0 clk $end
$var wire 1 N j $end
$var wire 1 O k $end
$var wire 1 ( reset $end
$var reg 1 P q $end
$var reg 1 Q q_bar $end
$upscope $end
$scope module jk7 $end
$var wire 1 0 clk $end
$var wire 1 R j $end
$var wire 1 S k $end
$var wire 1 ( reset $end
$var reg 1 T q $end
$var reg 1 U q_bar $end
$upscope $end
$scope module s1 $end
$var wire 4 V i [3:0] $end
$var reg 7 W out [0:6] $end
$var reg 9 X w [9:1] $end
$upscope $end
$scope module s2 $end
$var wire 4 Y i [3:0] $end
$var reg 7 Z out [0:6] $end
$var reg 9 [ w [9:1] $end
$upscope $end
$upscope $end
$upscope $end
$enddefinitions $end
#0
$dumpvars
b1010 [
b1111110 Z
b0 Y
b1010 X
b1111110 W
b0 V
1U
0T
0S
0R
1Q
0P
0O
0N
1M
0L
0K
0J
1I
0H
1G
1F
1E
0D
xC
xB
1A
0@
x?
x>
1=
0<
x;
x:
19
08
17
16
b0 5
b1111110 4
b0 3
b1111110 2
b0xxxxx 1
10
b0 /
b0 .
b1111110 -
b1111110 ,
b0 +
b0 *
b11111111 )
1(
1'
b0 &
b0 %
b1111110 $
b1111110 #
b0 "
b0 !
$end
#5
0(
#10
0B
0C
0>
0?
0:
0;
b0 1
0'
#20
b1 "
b1 +
b1 3
b110000 $
b110000 -
b110000 2
b110000 W
b0 X
b11111110 )
09
b1 &
b1 /
b1 V
18
1'
#30
1:
1;
b1 1
0'
#40
b10 "
b10 +
b10 3
b1101101 $
b1101101 -
b1101101 2
b1101101 W
b110010 X
19
08
b11111101 )
0=
b10 &
b10 /
b10 V
1<
1'
#50
0:
0;
b0 1
0'
#60
b11 "
b11 +
b11 3
b1111001 $
b1111001 -
b1111001 2
b1111001 W
b100100 X
b11111100 )
09
b11 &
b11 /
b11 V
18
1'
#70
1>
1?
1:
1;
b11 1
0'
#80
b100 "
b100 +
b100 3
b110011 $
b110011 -
b110011 2
b110011 W
b110001000 X
19
08
1=
0<
b11111011 )
0A
b100 &
b100 /
b100 V
1@
1'
#90
0>
0?
0:
0;
b0 1
0'
#100
b101 "
b101 +
b101 3
b1011011 $
b1011011 -
b1011011 2
b1011011 W
b11000001 X
b11111010 )
09
b101 &
b101 /
b101 V
18
1'
#110
1:
1;
b1 1
0'
#120
b110 "
b110 +
b110 3
b1011111 $
b1011111 -
b1011111 2
b1011111 W
b100010000 X
19
08
b11111001 )
0=
b110 &
b110 /
b110 V
1<
1'
#130
0:
0;
b0 1
0'
#140
b111 "
b111 +
b111 3
b1110000 $
b1110000 -
b1110000 2
b1110000 W
b101 X
b11111000 )
09
b111 &
b111 /
b111 V
18
1'
#150
1B
1C
1>
1?
1:
1;
b10111 1
0'
#160
00
b1000 "
b1000 +
b1000 3
b1111111 $
b1111111 -
b1111111 2
b1111111 W
b1010 X
19
08
1=
0<
1A
0@
b11110111 )
0E
b1000 &
b1000 /
b1000 V
1D
1'
#170
0B
0C
0>
0?
0:
0;
b0 1
0'
#180
b1001 "
b1001 +
b1001 3
b1111011 $
b1111011 -
b1111011 2
b1111011 W
b0 X
b11110110 )
09
b1001 &
b1001 /
b1001 V
18
1'
#190
1B
1C
b11000 1
0'
#200
b1 !
b1 *
b1 5
b110000 #
b110000 ,
b110000 4
b110000 Z
b0 [
0I
b1 %
b1 .
b1 Y
1H
10
b0 "
b0 +
b0 3
b1111110 $
b1111110 -
b1111110 2
b1111110 W
b1010 X
19
08
b11101111 )
1E
b0 &
b0 /
b0 V
0D
1'
#210
0B
0C
b0 1
0'
#220
b1 "
b1 +
b1 3
b110000 $
b110000 -
b110000 2
b110000 W
b0 X
b11101110 )
09
b1 &
b1 /
b1 V
18
1'
#230
1:
1;
b1 1
0'
#240
b10 "
b10 +
b10 3
b1101101 $
b1101101 -
b1101101 2
b1101101 W
b110010 X
19
08
b11101101 )
0=
b10 &
b10 /
b10 V
1<
1'
#250
0:
0;
b0 1
0'
#260
b11 "
b11 +
b11 3
b1111001 $
b1111001 -
b1111001 2
b1111001 W
b100100 X
b11101100 )
09
b11 &
b11 /
b11 V
18
1'
#270
1>
1?
1:
1;
b11 1
0'
#280
b100 "
b100 +
b100 3
b110011 $
b110011 -
b110011 2
b110011 W
b110001000 X
19
08
1=
0<
b11101011 )
0A
b100 &
b100 /
b100 V
1@
1'
#290
0>
0?
0:
0;
b0 1
0'
#300
b101 "
b101 +
b101 3
b1011011 $
b1011011 -
b1011011 2
b1011011 W
b11000001 X
b11101010 )
09
b101 &
b101 /
b101 V
18
1'
#310
1:
1;
b1 1
0'
#320
b110 "
b110 +
b110 3
b1011111 $
b1011111 -
b1011111 2
b1011111 W
b100010000 X
19
08
b11101001 )
0=
b110 &
b110 /
b110 V
1<
1'
#330
0:
0;
b0 1
0'
#340
b111 "
b111 +
b111 3
b1110000 $
b1110000 -
b1110000 2
b1110000 W
b101 X
b11101000 )
09
b111 &
b111 /
b111 V
18
1'
#350
1B
1C
1>
1?
1:
1;
b10111 1
0'
#360
1J
1K
b110111 1
00
b1000 "
b1000 +
b1000 3
b1111111 $
b1111111 -
b1111111 2
b1111111 W
b1010 X
19
08
1=
0<
1A
0@
b11100111 )
0E
b1000 &
b1000 /
b1000 V
1D
1'
#370
0B
0C
0>
0?
0:
0;
b100000 1
0'
#380
b1001 "
b1001 +
b1001 3
b1111011 $
b1111011 -
b1111011 2
b1111011 W
b0 X
b11100110 )
09
b1001 &
b1001 /
b1001 V
18
1'
#390
1B
1C
b111000 1
0'
#400
b10 !
b10 *
b10 5
b1101101 #
b1101101 ,
b1101101 4
b1101101 Z
b110010 [
1I
0H
0M
b10 %
b10 .
b10 Y
1L
10
b0 "
b0 +
b0 3
b1111110 $
b1111110 -
b1111110 2
b1111110 W
b1010 X
19
08
b11011111 )
1E
b0 &
b0 /
b0 V
0D
1'
#410
0B
0C
b100000 1
0'
#420
b1 "
b1 +
b1 3
b110000 $
b110000 -
b110000 2
b110000 W
b0 X
b11011110 )
09
b1 &
b1 /
b1 V
18
1'
#430
1:
1;
b100001 1
0'
#440
b10 "
b10 +
b10 3
b1101101 $
b1101101 -
b1101101 2
b1101101 W
b110010 X
19
08
b11011101 )
0=
b10 &
b10 /
b10 V
1<
1'
#450
0:
0;
b100000 1
0'
#460
b11 "
b11 +
b11 3
b1111001 $
b1111001 -
b1111001 2
b1111001 W
b100100 X
b11011100 )
09
b11 &
b11 /
b11 V
18
1'
#470
1>
1?
1:
1;
b100011 1
0'
#480
b100 "
b100 +
b100 3
b110011 $
b110011 -
b110011 2
b110011 W
b110001000 X
19
08
1=
0<
b11011011 )
0A
b100 &
b100 /
b100 V
1@
1'
#490
0>
0?
0:
0;
b100000 1
0'
#500
b101 "
b101 +
b101 3
b1011011 $
b1011011 -
b1011011 2
b1011011 W
b11000001 X
b11011010 )
09
b101 &
b101 /
b101 V
18
1'
#510
1:
1;
b100001 1
0'
#520
b110 "
b110 +
b110 3
b1011111 $
b1011111 -
b1011111 2
b1011111 W
b100010000 X
19
08
b11011001 )
0=
b110 &
b110 /
b110 V
1<
1'
#530
0:
0;
b100000 1
0'
#540
b111 "
b111 +
b111 3
b1110000 $
b1110000 -
b1110000 2
b1110000 W
b101 X
b11011000 )
09
b111 &
b111 /
b111 V
18
1'
#550
1B
1C
1>
1?
1:
1;
b110111 1
0'
#560
0J
0K
b10111 1
00
b1000 "
b1000 +
b1000 3
b1111111 $
b1111111 -
b1111111 2
b1111111 W
b1010 X
19
08
1=
0<
1A
0@
b11010111 )
0E
b1000 &
b1000 /
b1000 V
1D
1'
#570
0B
0C
0>
0?
0:
0;
b0 1
0'
#580
b1001 "
b1001 +
b1001 3
b1111011 $
b1111011 -
b1111011 2
b1111011 W
b0 X
b11010110 )
09
b1001 &
b1001 /
b1001 V
18
1'
#590
1B
1C
b11000 1
0'
#600
b11 !
b11 *
b11 5
b1111001 #
b1111001 ,
b1111001 4
b1111001 Z
b100100 [
0I
b11 %
b11 .
b11 Y
1H
10
b0 "
b0 +
b0 3
b1111110 $
b1111110 -
b1111110 2
b1111110 W
b1010 X
19
08
b11001111 )
1E
b0 &
b0 /
b0 V
0D
1'
#610
0B
0C
b0 1
0'
#620
b1 "
b1 +
b1 3
b110000 $
b110000 -
b110000 2
b110000 W
b0 X
b11001110 )
09
b1 &
b1 /
b1 V
18
1'
#630
1:
1;
b1 1
0'
#640
b10 "
b10 +
b10 3
b1101101 $
b1101101 -
b1101101 2
b1101101 W
b110010 X
19
08
b11001101 )
0=
b10 &
b10 /
b10 V
1<
1'
#650
0:
0;
b0 1
0'
#660
b11 "
b11 +
b11 3
b1111001 $
b1111001 -
b1111001 2
b1111001 W
b100100 X
b11001100 )
09
b11 &
b11 /
b11 V
18
1'
#670
1>
1?
1:
1;
b11 1
0'
#680
b100 "
b100 +
b100 3
b110011 $
b110011 -
b110011 2
b110011 W
b110001000 X
19
08
1=
0<
b11001011 )
0A
b100 &
b100 /
b100 V
1@
1'
#690
0>
0?
0:
0;
b0 1
0'
#700
b101 "
b101 +
b101 3
b1011011 $
b1011011 -
b1011011 2
b1011011 W
b11000001 X
b11001010 )
09
b101 &
b101 /
b101 V
18
1'
#710
1:
1;
b1 1
0'
#720
b110 "
b110 +
b110 3
b1011111 $
b1011111 -
b1011111 2
b1011111 W
b100010000 X
19
08
b11001001 )
0=
b110 &
b110 /
b110 V
1<
1'
#730
0:
0;
b0 1
0'
#740
b111 "
b111 +
b111 3
b1110000 $
b1110000 -
b1110000 2
b1110000 W
b101 X
b11001000 )
09
b111 &
b111 /
b111 V
18
1'
#750
1B
1C
1>
1?
1:
1;
b10111 1
0'
#760
1N
1O
1J
1K
b1110111 1
00
b1000 "
b1000 +
b1000 3
b1111111 $
b1111111 -
b1111111 2
b1111111 W
b1010 X
19
08
1=
0<
1A
0@
b11000111 )
0E
b1000 &
b1000 /
b1000 V
1D
1'
#770
0B
0C
0>
0?
0:
0;
b1100000 1
0'
#780
b1001 "
b1001 +
b1001 3
b1111011 $
b1111011 -
b1111011 2
b1111011 W
b0 X
b11000110 )
09
b1001 &
b1001 /
b1001 V
18
1'
#790
1B
1C
b1111000 1
0'
#800
b100 !
b100 *
b100 5
b110011 #
b110011 ,
b110011 4
b110011 Z
b110001000 [
1I
0H
1M
0L
0Q
b100 %
b100 .
b100 Y
1P
10
b0 "
b0 +
b0 3
b1111110 $
b1111110 -
b1111110 2
b1111110 W
b1010 X
19
08
b10111111 )
1E
b0 &
b0 /
b0 V
0D
1'
#810
0B
0C
b1100000 1
0'
#820
b1 "
b1 +
b1 3
b110000 $
b110000 -
b110000 2
b110000 W
b0 X
b10111110 )
09
b1 &
b1 /
b1 V
18
1'
#830
1:
1;
b1100001 1
0'
#840
b10 "
b10 +
b10 3
b1101101 $
b1101101 -
b1101101 2
b1101101 W
b110010 X
19
08
b10111101 )
0=
b10 &
b10 /
b10 V
1<
1'
#850
0:
0;
b1100000 1
0'
#860
b11 "
b11 +
b11 3
b1111001 $
b1111001 -
b1111001 2
b1111001 W
b100100 X
b10111100 )
09
b11 &
b11 /
b11 V
18
1'
#870
1>
1?
1:
1;
b1100011 1
0'
#880
b100 "
b100 +
b100 3
b110011 $
b110011 -
b110011 2
b110011 W
b110001000 X
19
08
1=
0<
b10111011 )
0A
b100 &
b100 /
b100 V
1@
1'
#890
0>
0?
0:
0;
b1100000 1
0'
#900
b101 "
b101 +
b101 3
b1011011 $
b1011011 -
b1011011 2
b1011011 W
b11000001 X
b10111010 )
09
b101 &
b101 /
b101 V
18
1'
#910
1:
1;
b1100001 1
0'
#920
b110 "
b110 +
b110 3
b1011111 $
b1011111 -
b1011111 2
b1011111 W
b100010000 X
19
08
b10111001 )
0=
b110 &
b110 /
b110 V
1<
1'
#930
0:
0;
b1100000 1
0'
#940
b111 "
b111 +
b111 3
b1110000 $
b1110000 -
b1110000 2
b1110000 W
b101 X
b10111000 )
09
b111 &
b111 /
b111 V
18
1'
#950
1B
1C
1>
1?
1:
1;
b1110111 1
0'
#960
0N
0O
0J
0K
b10111 1
00
b1000 "
b1000 +
b1000 3
b1111111 $
b1111111 -
b1111111 2
b1111111 W
b1010 X
19
08
1=
0<
1A
0@
b10110111 )
0E
b1000 &
b1000 /
b1000 V
1D
1'
#970
0B
0C
0>
0?
0:
0;
b0 1
0'
#980
b1001 "
b1001 +
b1001 3
b1111011 $
b1111011 -
b1111011 2
b1111011 W
b0 X
b10110110 )
09
b1001 &
b1001 /
b1001 V
18
1'
#990
1B
1C
b11000 1
0'
#1000
b101 !
b101 *
b101 5
b1011011 #
b1011011 ,
b1011011 4
b1011011 Z
b11000001 [
0I
b101 %
b101 .
b101 Y
1H
10
b0 "
b0 +
b0 3
b1111110 $
b1111110 -
b1111110 2
b1111110 W
b1010 X
19
08
b10101111 )
1E
b0 &
b0 /
b0 V
0D
1'
#1010
0B
0C
b0 1
0'
#1020
b1 "
b1 +
b1 3
b110000 $
b110000 -
b110000 2
b110000 W
b0 X
b10101110 )
09
b1 &
b1 /
b1 V
18
1'
#1030
1:
1;
b1 1
0'
#1040
b10 "
b10 +
b10 3
b1101101 $
b1101101 -
b1101101 2
b1101101 W
b110010 X
19
08
b10101101 )
0=
b10 &
b10 /
b10 V
1<
1'
#1050
0:
0;
b0 1
0'
#1060
b11 "
b11 +
b11 3
b1111001 $
b1111001 -
b1111001 2
b1111001 W
b100100 X
b10101100 )
09
b11 &
b11 /
b11 V
18
1'
#1070
1>
1?
1:
1;
b11 1
0'
#1080
b100 "
b100 +
b100 3
b110011 $
b110011 -
b110011 2
b110011 W
b110001000 X
19
08
1=
0<
b10101011 )
0A
b100 &
b100 /
b100 V
1@
1'
#1090
0>
0?
0:
0;
b0 1
0'
#1100
b101 "
b101 +
b101 3
b1011011 $
b1011011 -
b1011011 2
b1011011 W
b11000001 X
b10101010 )
09
b101 &
b101 /
b101 V
18
1'
#1110
1:
1;
b1 1
0'
#1120
b110 "
b110 +
b110 3
b1011111 $
b1011111 -
b1011111 2
b1011111 W
b100010000 X
19
08
b10101001 )
0=
b110 &
b110 /
b110 V
1<
1'
#1130
0:
0;
b0 1
0'
#1140
b111 "
b111 +
b111 3
b1110000 $
b1110000 -
b1110000 2
b1110000 W
b101 X
b10101000 )
09
b111 &
b111 /
b111 V
18
1'
#1150
1B
1C
1>
1?
1:
1;
b10111 1
0'
#1160
1J
1K
b110111 1
00
b1000 "
b1000 +
b1000 3
b1111111 $
b1111111 -
b1111111 2
b1111111 W
b1010 X
19
08
1=
0<
1A
0@
b10100111 )
0E
b1000 &
b1000 /
b1000 V
1D
1'
#1170
0B
0C
0>
0?
0:
0;
b100000 1
0'
#1180
b1001 "
b1001 +
b1001 3
b1111011 $
b1111011 -
b1111011 2
b1111011 W
b0 X
b10100110 )
09
b1001 &
b1001 /
b1001 V
18
1'
#1190
1B
1C
b111000 1
0'
#1200
b110 !
b110 *
b110 5
b1011111 #
b1011111 ,
b1011111 4
b1011111 Z
b100010000 [
1I
0H
0M
b110 %
b110 .
b110 Y
1L
10
b0 "
b0 +
b0 3
b1111110 $
b1111110 -
b1111110 2
b1111110 W
b1010 X
19
08
b10011111 )
1E
b0 &
b0 /
b0 V
0D
1'
#1210
0B
0C
b100000 1
0'
#1220
b1 "
b1 +
b1 3
b110000 $
b110000 -
b110000 2
b110000 W
b0 X
b10011110 )
09
b1 &
b1 /
b1 V
18
1'
#1230
1:
1;
b100001 1
0'
#1240
b10 "
b10 +
b10 3
b1101101 $
b1101101 -
b1101101 2
b1101101 W
b110010 X
19
08
b10011101 )
0=
b10 &
b10 /
b10 V
1<
1'
#1250
0:
0;
b100000 1
0'
#1260
b11 "
b11 +
b11 3
b1111001 $
b1111001 -
b1111001 2
b1111001 W
b100100 X
b10011100 )
09
b11 &
b11 /
b11 V
18
1'
#1270
1>
1?
1:
1;
b100011 1
0'
#1280
b100 "
b100 +
b100 3
b110011 $
b110011 -
b110011 2
b110011 W
b110001000 X
19
08
1=
0<
b10011011 )
0A
b100 &
b100 /
b100 V
1@
1'
#1290
0>
0?
0:
0;
b100000 1
0'
#1300
b101 "
b101 +
b101 3
b1011011 $
b1011011 -
b1011011 2
b1011011 W
b11000001 X
b10011010 )
09
b101 &
b101 /
b101 V
18
1'
#1310
1:
1;
b100001 1
0'
#1320
b110 "
b110 +
b110 3
b1011111 $
b1011111 -
b1011111 2
b1011111 W
b100010000 X
19
08
b10011001 )
0=
b110 &
b110 /
b110 V
1<
1'
#1330
0:
0;
b100000 1
0'
#1340
b111 "
b111 +
b111 3
b1110000 $
b1110000 -
b1110000 2
b1110000 W
b101 X
b10011000 )
09
b111 &
b111 /
b111 V
18
1'
#1350
1B
1C
1>
1?
1:
1;
b110111 1
0'
#1360
0J
0K
b10111 1
00
b1000 "
b1000 +
b1000 3
b1111111 $
b1111111 -
b1111111 2
b1111111 W
b1010 X
19
08
1=
0<
1A
0@
b10010111 )
0E
b1000 &
b1000 /
b1000 V
1D
1'
#1370
0B
0C
0>
0?
0:
0;
b0 1
0'
#1380
b1001 "
b1001 +
b1001 3
b1111011 $
b1111011 -
b1111011 2
b1111011 W
b0 X
b10010110 )
09
b1001 &
b1001 /
b1001 V
18
1'
#1390
1B
1C
b11000 1
0'
#1400
b111 !
b111 *
b111 5
b1110000 #
b1110000 ,
b1110000 4
b1110000 Z
b101 [
0I
b111 %
b111 .
b111 Y
1H
10
b0 "
b0 +
b0 3
b1111110 $
b1111110 -
b1111110 2
b1111110 W
b1010 X
19
08
b10001111 )
1E
b0 &
b0 /
b0 V
0D
1'
#1410
0B
0C
b0 1
0'
#1420
b1 "
b1 +
b1 3
b110000 $
b110000 -
b110000 2
b110000 W
b0 X
b10001110 )
09
b1 &
b1 /
b1 V
18
1'
#1430
1:
1;
b1 1
0'
#1440
b10 "
b10 +
b10 3
b1101101 $
b1101101 -
b1101101 2
b1101101 W
b110010 X
19
08
b10001101 )
0=
b10 &
b10 /
b10 V
1<
1'
#1450
0:
0;
b0 1
0'
#1460
b11 "
b11 +
b11 3
b1111001 $
b1111001 -
b1111001 2
b1111001 W
b100100 X
b10001100 )
09
b11 &
b11 /
b11 V
18
1'
#1470
1>
1?
1:
1;
b11 1
0'
#1480
b100 "
b100 +
b100 3
b110011 $
b110011 -
b110011 2
b110011 W
b110001000 X
19
08
1=
0<
b10001011 )
0A
b100 &
b100 /
b100 V
1@
1'
#1490
0>
0?
0:
0;
b0 1
0'
#1500
b101 "
b101 +
b101 3
b1011011 $
b1011011 -
b1011011 2
b1011011 W
b11000001 X
b10001010 )
09
b101 &
b101 /
b101 V
18
1'
#1510
1:
1;
b1 1
0'
#1520
b110 "
b110 +
b110 3
b1011111 $
b1011111 -
b1011111 2
b1011111 W
b100010000 X
19
08
b10001001 )
0=
b110 &
b110 /
b110 V
1<
1'
#1530
0:
0;
b0 1
0'
#1540
b111 "
b111 +
b111 3
b1110000 $
b1110000 -
b1110000 2
b1110000 W
b101 X
b10001000 )
09
b111 &
b111 /
b111 V
18
1'
#1550
1B
1C
1>
1?
1:
1;
b10111 1
0'
#1560
1R
1S
1N
1O
1J
1K
b1011110111 1
00
b1000 "
b1000 +
b1000 3
b1111111 $
b1111111 -
b1111111 2
b1111111 W
b1010 X
19
08
1=
0<
1A
0@
b10000111 )
0E
b1000 &
b1000 /
b1000 V
1D
1'
#1570
0B
0C
0>
0?
0:
0;
b1011100000 1
0'
#1580
b1001 "
b1001 +
b1001 3
b1111011 $
b1111011 -
b1111011 2
b1111011 W
b0 X
b10000110 )
09
b1001 &
b1001 /
b1001 V
18
1'
#1590
1B
1C
b1011111000 1
0'
#1600
b1000 !
b1000 *
b1000 5
b1111111 #
b1111111 ,
b1111111 4
b1111111 Z
b1010 [
1I
0H
1M
0L
1Q
0P
0U
b1000 %
b1000 .
b1000 Y
1T
10
b0 "
b0 +
b0 3
b1111110 $
b1111110 -
b1111110 2
b1111110 W
b1010 X
19
08
b1111111 )
1E
b0 &
b0 /
b0 V
0D
1'
#1610
0B
0C
b1011100000 1
0'
#1620
b1 "
b1 +
b1 3
b110000 $
b110000 -
b110000 2
b110000 W
b0 X
b1111110 )
09
b1 &
b1 /
b1 V
18
1'
#1630
1:
1;
b1011100001 1
0'
#1640
b10 "
b10 +
b10 3
b1101101 $
b1101101 -
b1101101 2
b1101101 W
b110010 X
19
08
b1111101 )
0=
b10 &
b10 /
b10 V
1<
1'
#1650
0:
0;
b1011100000 1
0'
#1660
b11 "
b11 +
b11 3
b1111001 $
b1111001 -
b1111001 2
b1111001 W
b100100 X
b1111100 )
09
b11 &
b11 /
b11 V
18
1'
#1670
1>
1?
1:
1;
b1011100011 1
0'
#1680
b100 "
b100 +
b100 3
b110011 $
b110011 -
b110011 2
b110011 W
b110001000 X
19
08
1=
0<
b1111011 )
0A
b100 &
b100 /
b100 V
1@
1'
#1690
0>
0?
0:
0;
b1011100000 1
0'
#1700
b101 "
b101 +
b101 3
b1011011 $
b1011011 -
b1011011 2
b1011011 W
b11000001 X
b1111010 )
09
b101 &
b101 /
b101 V
18
1'
#1710
1:
1;
b1011100001 1
0'
#1720
b110 "
b110 +
b110 3
b1011111 $
b1011111 -
b1011111 2
b1011111 W
b100010000 X
19
08
b1111001 )
0=
b110 &
b110 /
b110 V
1<
1'
#1730
0:
0;
b1011100000 1
0'
#1740
b111 "
b111 +
b111 3
b1110000 $
b1110000 -
b1110000 2
b1110000 W
b101 X
b1111000 )
09
b111 &
b111 /
b111 V
18
1'
#1750
1B
1C
1>
1?
1:
1;
b1011110111 1
0'
#1760
0R
0S
0N
0O
0J
0K
b10111 1
00
b1000 "
b1000 +
b1000 3
b1111111 $
b1111111 -
b1111111 2
b1111111 W
b1010 X
19
08
1=
0<
1A
0@
b1110111 )
0E
b1000 &
b1000 /
b1000 V
1D
1'
#1770
0B
0C
0>
0?
0:
0;
b0 1
0'
#1780
b1001 "
b1001 +
b1001 3
b1111011 $
b1111011 -
b1111011 2
b1111011 W
b0 X
b1110110 )
09
b1001 &
b1001 /
b1001 V
18
1'
#1790
1B
1C
b11000 1
0'
#1800
b1001 !
b1001 *
b1001 5
b1111011 #
b1111011 ,
b1111011 4
b1111011 Z
b0 [
0I
b1001 %
b1001 .
b1001 Y
1H
10
b0 "
b0 +
b0 3
b1111110 $
b1111110 -
b1111110 2
b1111110 W
b1010 X
19
08
b1101111 )
1E
b0 &
b0 /
b0 V
0D
1'
#1810
0B
0C
b0 1
0'
#1820
b1 "
b1 +
b1 3
b110000 $
b110000 -
b110000 2
b110000 W
b0 X
b1101110 )
09
b1 &
b1 /
b1 V
18
1'
#1830
1:
1;
b1 1
0'
#1840
b10 "
b10 +
b10 3
b1101101 $
b1101101 -
b1101101 2
b1101101 W
b110010 X
19
08
b1101101 )
0=
b10 &
b10 /
b10 V
1<
1'
#1850
0:
0;
b0 1
0'
#1860
b11 "
b11 +
b11 3
b1111001 $
b1111001 -
b1111001 2
b1111001 W
b100100 X
b1101100 )
09
b11 &
b11 /
b11 V
18
1'
#1870
1>
1?
1:
1;
b11 1
0'
#1880
b100 "
b100 +
b100 3
b110011 $
b110011 -
b110011 2
b110011 W
b110001000 X
19
08
1=
0<
b1101011 )
0A
b100 &
b100 /
b100 V
1@
1'
#1890
0>
0?
0:
0;
b0 1
0'
#1900
b101 "
b101 +
b101 3
b1011011 $
b1011011 -
b1011011 2
b1011011 W
b11000001 X
b1101010 )
09
b101 &
b101 /
b101 V
18
1'
#1910
1:
1;
b1 1
0'
#1920
b110 "
b110 +
b110 3
b1011111 $
b1011111 -
b1011111 2
b1011111 W
b100010000 X
19
08
b1101001 )
0=
b110 &
b110 /
b110 V
1<
1'
#1930
0:
0;
b0 1
0'
#1940
b111 "
b111 +
b111 3
b1110000 $
b1110000 -
b1110000 2
b1110000 W
b101 X
b1101000 )
09
b111 &
b111 /
b111 V
18
1'
#1950
1B
1C
1>
1?
1:
1;
b10111 1
0'
#1960
1R
1S
b1100010111 1
00
b1000 "
b1000 +
b1000 3
b1111111 $
b1111111 -
b1111111 2
b1111111 W
b1010 X
19
08
1=
0<
1A
0@
b1100111 )
0E
b1000 &
b1000 /
b1000 V
1D
1'
#1970
0B
0C
0>
0?
0:
0;
b1100000000 1
0'
#1980
b1001 "
b1001 +
b1001 3
b1111011 $
b1111011 -
b1111011 2
b1111011 W
b0 X
b1100110 )
09
b1001 &
b1001 /
b1001 V
18
1'
#1990
1B
1C
b1100011000 1
0'
#2000
b0 !
b0 *
b0 5
b1111110 #
b1111110 ,
b1111110 4
b1111110 Z
b1010 [
1I
0H
1U
b0 %
b0 .
b0 Y
0T
10
b0 "
b0 +
b0 3
b1111110 $
b1111110 -
b1111110 2
b1111110 W
b1010 X
19
08
b11111111 )
1E
b0 &
b0 /
b0 V
0D
1'
#2010
0B
0C
b1100000000 1
0'
